<svg width="24" height="20" viewBox="0 0 24 20" fill="none" xmlns="http://www.w3.org/2000/svg">
<path d="M23.8269 2.71571C23.6089 2.46567 23.2458 2.40206 22.9556 2.56299C22.9306 2.57686 22.9054 2.59045 22.8801 2.60377C23.1302 2.19473 23.3248 1.75001 23.4564 1.2797C23.5327 1.00674 23.4377 0.714563 23.2153 0.538778C22.9931 0.362945 22.6868 0.337819 22.4388 0.475073C21.6781 0.895974 20.8718 1.22847 20.0372 1.46599C19.053 0.571966 17.7576 0.0664062 16.4209 0.0664062C13.4583 0.0664062 11.048 2.47664 11.048 5.43917C11.048 5.54314 11.051 5.64706 11.057 5.75071C7.7332 5.52073 4.71789 3.88808 2.68969 1.19242C2.56749 1.02545 2.37609 0.918897 2.16534 0.906053C1.91258 0.890021 1.67051 1.01246 1.53251 1.22514C0.980259 2.07627 0.688361 3.06461 0.688361 4.08323C0.688361 5.01878 0.938164 5.91984 1.38972 6.7045C1.30328 6.70492 1.21614 6.72123 1.13279 6.75447C0.871788 6.85848 0.697783 7.10787 0.690236 7.38875C0.68897 7.43586 0.688314 7.48302 0.688314 7.53036C0.688314 9.18875 1.45887 10.6901 2.68744 11.6601C2.61057 11.8143 2.59191 11.994 2.63996 12.1646C2.94376 13.2422 3.60186 14.2141 4.49293 14.901C4.85425 15.1796 5.24365 15.407 5.65377 15.5807C4.22039 16.2029 2.66841 16.5266 1.08325 16.5266C0.962681 16.5266 0.842021 16.5248 0.724643 16.5212C0.407104 16.5124 0.12294 16.7157 0.0305006 17.0194C-0.0618924 17.3231 0.0606889 17.6511 0.329618 17.8197C2.53547 19.2032 5.08418 19.9345 7.7002 19.9345C11.4103 19.9345 14.8982 18.4897 17.5216 15.8663C20.1451 13.2429 21.5899 9.75492 21.5899 6.04481C21.5899 6.01064 21.5898 5.97642 21.5895 5.9421C22.4418 5.26015 23.2041 4.47361 23.8594 3.5997C24.0585 3.33419 24.0449 2.96579 23.8269 2.71571Z" fill="white"/>
</svg>
